System Verilog/spi/spi_controller_test/waveform.vcd
$date
	Tue Aug 12 16:52:28 2025
$end
$version
	Icarus Verilog
$end
$timescale
	1ps
$end
$scope module tb_spi_master $end
$var wire 1 ! valid_out $end
$var wire 1 " ready_out $end
$var wire 8 # data_out [7:0] $end
$var wire 1 $ SS $end
$var wire 1 % SCK $end
$var wire 1 & MOSI $end
$var reg 1 ' MISO $end
$var reg 1 ( clk $end
$var reg 8 ) data_in [7:0] $end
$var reg 6 * data_words [5:0] $end
$var reg 1 + n_rst $end
$var reg 8 , slave_shift [7:0] $end
$var reg 1 - spi_en $end
$var reg 1 . tied_SS $end
$var integer 32 / i [31:0] $end
$scope module uut $end
$var wire 1 ' MISO $end
$var wire 1 % SCK $end
$var wire 1 $ SS $end
$var wire 1 ( clk $end
$var wire 8 0 data_in [7:0] $end
$var wire 8 1 data_out [7:0] $end
$var wire 6 2 data_words [5:0] $end
$var wire 1 + n_rst $end
$var wire 1 " ready_out $end
$var wire 1 - spi_en $end
$var wire 1 . tied_SS $end
$var wire 1 ! valid_out $end
$var wire 1 & MOSI $end
$var reg 1 3 MISO_reg $end
$var reg 1 4 SCK_reg $end
$var reg 1 5 SS_reg $end
$var reg 3 6 bit_cnt [2:0] $end
$var reg 1 7 clk_cnt $end
$var reg 1 8 next_MISO $end
$var reg 1 9 next_SCK $end
$var reg 1 : next_SS $end
$var reg 3 ; next_bit [2:0] $end
$var reg 1 < next_clk $end
$var reg 1 = next_ready $end
$var reg 8 > next_spi_data [7:0] $end
$var reg 2 ? next_state [1:0] $end
$var reg 1 @ next_valid $end
$var reg 5 A next_word [4:0] $end
$var reg 1 B ready_reg $end
$var reg 8 C spi_data_reg [7:0] $end
$var reg 2 D state [1:0] $end
$var reg 1 E valid_reg $end
$var reg 5 F word_cnt [4:0] $end
$upscope $end
$upscope $end
$enddefinitions $end
#0
$dumpvars
bx F
xE
bx D
bx C
xB
bx A
x@
bx ?
bx >
x=
x<
bx ;
x:
x9
x8
x7
bx 6
x5
x4
x3
b100 2
bx 1
b0 0
bx /
1.
0-
bx ,
0+
b100 *
b0 )
0(
z'
x&
x%
x$
bx #
x"
x!
$end
#5000
b0 ,
0&
08
0@
1=
b0 >
1:
09
b0 A
b0 ;
0<
b0 ?
03
0!
0E
0"
0B
b0 #
b0 1
b0 C
1$
15
0%
04
b0 F
b0 6
07
b0 D
1(
#10000
0(
#15000
1(
#20000
0(
1+
#25000
1"
1B
1(
#30000
0(
#35000
1(
#40000
b1 ?
b11111010 >
0:
0(
1-
b10101010 ,
b11111010 )
b11111010 0
b0 /
0.
#45000
1&
19
1<
0$
05
b11111010 #
b11111010 1
b11111010 C
b1 D
1(
#50000
19
1<
0(
0-
#55000
b1010100 ,
1'
18
09
b1 ;
0<
1%
14
17
1(
#60000
0(
#65000
b11110101 >
19
1<
13
0%
04
b1 6
07
1(
#70000
0(
#75000
08
b10101000 ,
0'
09
b10 ;
0<
b11110101 #
b11110101 1
b11110101 C
1%
14
17
1(
#80000
0(
#85000
b11101010 >
19
1<
03
0%
04
b10 6
07
1(
#90000
0(
#95000
18
b1010000 ,
1'
09
b11 ;
0<
b11101010 #
b11101010 1
b11101010 C
1%
14
17
1(
#100000
0(
#105000
b11010101 >
19
1<
13
0%
04
b11 6
07
1(
#110000
0(
#115000
08
b10100000 ,
0'
09
b100 ;
0<
b11010101 #
b11010101 1
b11010101 C
1%
14
17
1(
#120000
0(
#125000
b10101010 >
19
1<
03
0%
04
b100 6
07
1(
#130000
0(
#135000
18
b1000000 ,
1'
09
b101 ;
0<
b10101010 #
b10101010 1
b10101010 C
1%
14
17
1(
#140000
0(
#145000
b1010101 >
19
1<
13
0%
04
b101 6
07
1(
#150000
0(
#155000
08
b10000000 ,
0'
0&
09
b110 ;
0<
b1010101 #
b1010101 1
b1010101 C
1%
14
17
1(
#160000
0(
#165000
b10101010 >
19
1<
03
0%
04
b110 6
07
1(
#170000
0(
#175000
18
b0 ,
1'
1&
09
b111 ;
0<
b10101010 #
b10101010 1
b10101010 C
1%
14
17
1(
#180000
0(
#185000
b1010101 >
19
1<
13
0%
04
b111 6
07
1(
#190000
0(
#195000
08
0'
0&
09
b1 A
b10 ?
0<
b1010101 #
b1010101 1
b1010101 C
1%
14
17
1(
#200000
0(
#205000
1@
b10101010 >
1:
b0 ?
03
0%
04
b1 F
07
b10 D
1(
#210000
0(
#215000
z'
1&
b11111010 >
0:
0@
b1 ?
b0 ;
1!
1E
1$
15
b10101010 #
b10101010 1
b10101010 C
b0 D
1(
#220000
0(
#225000
19
1<
0!
0E
0$
05
b11111011 #
b11111011 1
b11111011 C
b0 6
b1 D
b0 ;
b1 ?
0@
b11111011 >
0:
1(
1-
b10111011 ,
b11111011 )
b11111011 0
b1 /
#230000
0(
#235000
b1110110 ,
1'
18
b1 ;
1%
14
17
09
0<
1(
0-
#240000
0(
#245000
b11110111 >
19
1<
13
0%
04
b1 6
07
1(
#250000
0(
#255000
08
b11101100 ,
0'
09
b10 ;
0<
b11110111 #
b11110111 1
b11110111 C
1%
14
17
1(
#260000
0(
#265000
b11101110 >
19
1<
03
0%
04
b10 6
07
1(
#270000
0(
#275000
18
b11011000 ,
1'
09
b11 ;
0<
b11101110 #
b11101110 1
b11101110 C
1%
14
17
1(
#280000
0(
#285000
b11011101 >
19
1<
13
0%
04
b11 6
07
1(
#290000
0(
#295000
b10110000 ,
09
b100 ;
0<
b11011101 #
b11011101 1
b11011101 C
1%
14
17
1(
#300000
0(
#305000
b10111011 >
19
1<
0%
04
b100 6
07
1(
#310000
0(
#315000
b1100000 ,
09
b101 ;
0<
b10111011 #
b10111011 1
b10111011 C
1%
14
17
1(
#320000
0(
#325000
b1110111 >
19
1<
0%
04
b101 6
07
1(
#330000
0(
#335000
08
b11000000 ,
0'
0&
09
b110 ;
0<
b1110111 #
b1110111 1
b1110111 C
1%
14
17
1(
#340000
0(
#345000
b11101110 >
19
1<
03
0%
04
b110 6
07
1(
#350000
0(
#355000
18
b10000000 ,
1'
1&
09
b111 ;
0<
b11101110 #
b11101110 1
b11101110 C
1%
14
17
1(
#360000
0(
#365000
b11011101 >
19
1<
13
0%
04
b111 6
07
1(
#370000
0(
#375000
b0 ,
09
b10 A
b10 ?
0<
b11011101 #
b11011101 1
b11011101 C
1%
14
17
1(
#380000
0(
#385000
1@
b10111011 >
1:
b0 ?
0%
04
b10 F
07
b10 D
1(
#390000
0(
#395000
z'
b11111011 >
0:
0@
b1 ?
b0 ;
1!
1E
1$
15
b10111011 #
b10111011 1
b10111011 C
b0 D
1(
#400000
0(
#405000
19
1<
0!
0E
0$
05
b11111100 #
b11111100 1
b11111100 C
b0 6
b1 D
b0 ;
b1 ?
0@
b11111100 >
0:
1(
1-
b11001100 ,
b11111100 )
b11111100 0
b10 /
#410000
0(
#415000
b10011000 ,
1'
18
b1 ;
1%
14
17
09
0<
1(
0-
#420000
0(
#425000
b11111001 >
19
1<
0%
04
b1 6
07
1(
#430000
0(
#435000
b110000 ,
09
b10 ;
0<
b11111001 #
b11111001 1
b11111001 C
1%
14
17
1(
#440000
0(
#445000
b11110011 >
19
1<
0%
04
b10 6
07
1(
#450000
0(
#455000
08
b1100000 ,
0'
09
b11 ;
0<
b11110011 #
b11110011 1
b11110011 C
1%
14
17
1(
#460000
0(
#465000
b11100110 >
19
1<
03
0%
04
b11 6
07
1(
#470000
0(
#475000
b11000000 ,
09
b100 ;
0<
b11100110 #
b11100110 1
b11100110 C
1%
14
17
1(
#480000
0(
#485000
b11001100 >
19
1<
0%
04
b100 6
07
1(
#490000
0(
#495000
18
b10000000 ,
1'
09
b101 ;
0<
b11001100 #
b11001100 1
b11001100 C
1%
14
17
1(
#500000
0(
#505000
b10011001 >
19
1<
13
0%
04
b101 6
07
1(
#510000
0(
#515000
b0 ,
09
b110 ;
0<
b10011001 #
b10011001 1
b10011001 C
1%
14
17
1(
#520000
0(
#525000
b110011 >
19
1<
0%
04
b110 6
07
1(
#530000
0(
#535000
08
0'
0&
09
b111 ;
0<
b110011 #
b110011 1
b110011 C
1%
14
17
1(
#540000
0(
#545000
b1100110 >
19
1<
03
0%
04
b111 6
07
1(
#550000
0(
#555000
09
b11 A
b10 ?
0<
b1100110 #
b1100110 1
b1100110 C
1%
14
17
1(
#560000
0(
#565000
1@
b11001100 >
1:
b0 ?
0%
04
b11 F
07
b10 D
1(
#570000
0(
#575000
z'
1&
b11111100 >
0:
0@
b1 ?
b0 ;
1!
1E
1$
15
b11001100 #
b11001100 1
b11001100 C
b0 D
1(
#580000
0(
#585000
19
1<
0!
0E
0$
05
b11111110 #
b11111110 1
b11111110 C
b0 6
b1 D
b0 ;
b1 ?
0@
b11111110 >
0:
1(
1-
b11011101 ,
b11111110 )
b11111110 0
b11 /
#590000
0(
#595000
b10111010 ,
1'
18
b1 ;
1%
14
17
09
0<
1(
0-
#600000
0(
#605000
b11111101 >
19
1<
13
0%
04
b1 6
07
1(
#610000
0(
#615000
b1110100 ,
09
b10 ;
0<
b11111101 #
b11111101 1
b11111101 C
1%
14
17
1(
#620000
0(
#625000
b11111011 >
19
1<
0%
04
b10 6
07
1(
#630000
0(
#635000
08
b11101000 ,
0'
09
b11 ;
0<
b11111011 #
b11111011 1
b11111011 C
1%
14
17
1(
#640000
0(
#645000
b11110110 >
19
1<
03
0%
04
b11 6
07
1(
#650000
0(
#655000
18
b11010000 ,
1'
09
b100 ;
0<
b11110110 #
b11110110 1
b11110110 C
1%
14
17
1(
#660000
0(
#665000
b11101101 >
19
1<
13
0%
04
b100 6
07
1(
#670000
0(
#675000
b10100000 ,
09
b101 ;
0<
b11101101 #
b11101101 1
b11101101 C
1%
14
17
1(
#680000
0(
#685000
b11011011 >
19
1<
0%
04
b101 6
07
1(
#690000
0(
#695000
b1000000 ,
09
b110 ;
0<
b11011011 #
b11011011 1
b11011011 C
1%
14
17
1(
#700000
0(
#705000
b10110111 >
19
1<
0%
04
b110 6
07
1(
#710000
0(
#715000
08
b10000000 ,
0'
09
b111 ;
0<
b10110111 #
b10110111 1
b10110111 C
1%
14
17
1(
#720000
0(
#725000
b1101110 >
19
1<
03
0%
04
b111 6
07
1(
#730000
0(
#735000
18
b0 ,
1'
0&
09
b0 A
b10 ?
0<
b1101110 #
b1101110 1
b1101110 C
1%
14
17
1(
#740000
0(
#745000
1@
b11011101 >
1:
b0 ?
13
0%
04
b0 F
07
b10 D
1(
#750000
0(
#755000
z'
1&
0@
1!
1E
1$
15
b11011101 #
b11011101 1
b11011101 C
b0 D
1(
#760000
0(
#765000
0!
0E
0@
1(
1.
b100 /
