System Verilog/spi/spi_controller/waveform.vcd
$date
	Tue Aug 12 16:40:50 2025
$end
$version
	Icarus Verilog
$end
$timescale
	1ps
$end
$scope module tb_spi_controller $end
$var wire 1 ! valid_out $end
$var wire 1 " ready_out $end
$var wire 8 # data_out [7:0] $end
$var wire 1 $ SS $end
$var wire 1 % SCK $end
$var wire 1 & MOSI $end
$var reg 1 ' MISO $end
$var reg 4 ( bit_cnt [3:0] $end
$var reg 1 ) clk $end
$var reg 8 * data_in [7:0] $end
$var reg 1 + n_rst $end
$var reg 8 , slave_shift [7:0] $end
$var reg 1 - spi_en $end
$var integer 32 . i [31:0] $end
$scope module uut $end
$var wire 1 ' MISO $end
$var wire 1 ) clk $end
$var wire 8 / data_in [7:0] $end
$var wire 1 + n_rst $end
$var wire 1 - spi_en $end
$var wire 1 ! valid_out $end
$var wire 1 " ready_out $end
$var wire 8 0 data_out [7:0] $end
$var wire 1 $ SS $end
$var wire 1 % SCK $end
$var wire 1 & MOSI $end
$scope module spi_instance $end
$var wire 1 ' MISO $end
$var wire 1 % SCK $end
$var wire 1 $ SS $end
$var wire 1 ) clk $end
$var wire 8 1 data_in [7:0] $end
$var wire 8 2 data_out [7:0] $end
$var wire 6 3 data_words [5:0] $end
$var wire 1 + n_rst $end
$var wire 1 " ready_out $end
$var wire 1 - spi_en $end
$var wire 1 4 tied_SS $end
$var wire 1 ! valid_out $end
$var wire 1 & MOSI $end
$var reg 1 5 MISO_reg $end
$var reg 1 6 SCK_reg $end
$var reg 1 7 SS_reg $end
$var reg 3 8 bit_cnt [2:0] $end
$var reg 2 9 clk_cnt [1:0] $end
$var reg 1 : next_MISO $end
$var reg 1 ; next_SCK $end
$var reg 1 < next_SS $end
$var reg 3 = next_bit [2:0] $end
$var reg 2 > next_clk [1:0] $end
$var reg 1 ? next_ready $end
$var reg 8 @ next_spi_data [7:0] $end
$var reg 2 A next_state [1:0] $end
$var reg 1 B next_valid $end
$var reg 5 C next_word [4:0] $end
$var reg 1 D ready_reg $end
$var reg 8 E spi_data_reg [7:0] $end
$var reg 2 F state [1:0] $end
$var reg 1 G valid_reg $end
$var reg 5 H word_cnt [4:0] $end
$upscope $end
$upscope $end
$upscope $end
$enddefinitions $end
#0
$dumpvars
b0 H
0G
b0 F
b0 E
0D
b0 C
0B
b0 A
b0 @
1?
b0 >
b0 =
1<
0;
0:
b0 9
b0 8
17
06
05
14
b100 3
b0 2
b0 1
b0 0
b0 /
bx .
0-
bx ,
0+
b0 *
0)
bx (
0'
0&
0%
1$
b0 #
0"
0!
$end
#5000
1)
#10000
0)
#15000
1)
#20000
0)
b0 .
1+
#25000
b1 A
b11111010 @
0<
0?
1-
b11111010 *
b11111010 /
b11111010 1
1"
1D
1)
#30000
0)
#35000
b1000 (
b10100101 ,
1&
b1 >
0"
0D
0$
07
b11111010 #
b11111010 0
b11111010 2
b11111010 E
b1 F
0?
b11111010 @
0<
b1 A
0-
1)
#40000
0)
#45000
1;
b10 >
b1 9
1)
#50000
0)
#55000
b11 >
1%
16
b10 9
1)
#60000
0)
#65000
0;
b1 =
b0 >
b11 9
1)
#70000
0)
#75000
b1001010 ,
1'
b1 >
0%
06
b1 8
b0 9
1)
#80000
0)
#85000
b11110100 @
1;
b10 >
b1 9
1)
#90000
0)
#95000
b11 >
b11110100 #
b11110100 0
b11110100 2
b11110100 E
1%
16
b10 9
1)
#100000
0)
#105000
1:
0;
b10 =
b0 >
b11 9
1)
#110000
0)
#115000
b10010100 ,
0'
b1 >
15
0%
06
b10 8
b0 9
1)
#120000
0)
#125000
b11101001 @
1;
b10 >
b1 9
1)
#130000
0)
#135000
b11 >
b11101001 #
b11101001 0
b11101001 2
b11101001 E
1%
16
b10 9
1)
#140000
0)
#145000
0:
0;
b11 =
b0 >
b11 9
1)
#150000
0)
#155000
b101000 ,
1'
b1 >
05
0%
06
b11 8
b0 9
1)
#160000
0)
#165000
b11010010 @
1;
b10 >
b1 9
1)
#170000
0)
#175000
b11 >
b11010010 #
b11010010 0
b11010010 2
b11010010 E
1%
16
b10 9
1)
#180000
0)
#185000
1:
0;
b100 =
b0 >
b11 9
1)
#190000
0)
#195000
b1010000 ,
0'
b1 >
15
0%
06
b100 8
b0 9
1)
#200000
0)
#205000
b10100101 @
1;
b10 >
b1 9
1)
#210000
0)
#215000
b11 >
b10100101 #
b10100101 0
b10100101 2
b10100101 E
1%
16
b10 9
1)
#220000
0)
#225000
0:
0;
b101 =
b0 >
b11 9
1)
#230000
0)
#235000
b10100000 ,
b1 >
05
0%
06
b101 8
b0 9
1)
#240000
0)
#245000
b1001010 @
1;
b10 >
b1 9
1)
#250000
0)
#255000
0&
b11 >
b1001010 #
b1001010 0
b1001010 2
b1001010 E
1%
16
b10 9
1)
#260000
0)
#265000
0;
b110 =
b0 >
b11 9
1)
#270000
0)
#275000
b1000000 ,
1'
b1 >
0%
06
b110 8
b0 9
1)
#280000
0)
#285000
b10010100 @
1;
b10 >
b1 9
1)
#290000
0)
#295000
1&
b11 >
b10010100 #
b10010100 0
b10010100 2
b10010100 E
1%
16
b10 9
1)
#300000
0)
#305000
1:
0;
b111 =
b0 >
b11 9
1)
#310000
0)
#315000
b10000000 ,
0'
b1 >
15
0%
06
b111 8
b0 9
1)
#320000
0)
#325000
b101001 @
1;
b10 >
b1 9
1)
#330000
0)
#335000
0&
b11 >
b101001 #
b101001 0
b101001 2
b101001 E
1%
16
b10 9
1)
#340000
0)
#345000
0:
0;
b1 C
b10 A
b0 >
b11 9
1)
#350000
0)
#355000
b0 ,
1'
b1 >
05
0%
06
b1 H
b0 9
b10 F
1)
#360000
0)
#365000
1B
b1010010 @
b0 A
b0 >
b1 9
1)
#370000
0)
#375000
b1 .
0B
b1 >
1!
1G
b1010010 #
b1010010 0
b1010010 2
b1010010 E
b0 9
b0 F
1)
#380000
0)
#385000
b11111010 @
b1 A
b0 =
b0 >
0!
0G
b1 9
1)
#390000
0)
#395000
1&
b1 >
b11111010 #
b11111010 0
b11111010 2
b11111010 E
b0 8
b0 9
b1 F
1)
#400000
0)
#405000
1;
b10 >
b1 9
1)
#410000
0)
#415000
b11 >
1%
16
b10 9
1)
#420000
0)
#425000
1:
0;
b1 =
b0 >
b11 9
1)
#430000
0)
#435000
0'
b1 >
15
0%
06
b1 8
b0 9
1)
#440000
0)
#445000
b11110101 @
1;
b10 >
b1 9
1)
#450000
0)
#455000
b11 >
b11110101 #
b11110101 0
b11110101 2
b11110101 E
1%
16
b10 9
1)
#460000
0)
#465000
0:
0;
b10 =
b0 >
b11 9
1)
#470000
0)
#475000
b1 >
05
0%
06
b10 8
b0 9
1)
#480000
0)
#485000
b11101010 @
1;
b10 >
b1 9
1)
#490000
0)
#495000
b11 >
b11101010 #
b11101010 0
b11101010 2
b11101010 E
1%
16
b10 9
1)
#500000
0)
#505000
0;
b11 =
b0 >
b11 9
1)
#510000
0)
#515000
b1 >
0%
06
b11 8
b0 9
1)
#520000
0)
#525000
b11010100 @
1;
b10 >
b1 9
1)
#530000
0)
#535000
b11 >
b11010100 #
b11010100 0
b11010100 2
b11010100 E
1%
16
b10 9
1)
#540000
0)
#545000
0;
b100 =
b0 >
b11 9
1)
#550000
0)
#555000
b1 >
0%
06
b100 8
b0 9
1)
#560000
0)
#565000
b10101000 @
1;
b10 >
b1 9
1)
#570000
0)
#575000
b11 >
b10101000 #
b10101000 0
b10101000 2
b10101000 E
1%
16
b10 9
1)
#580000
0)
#585000
0;
b101 =
b0 >
b11 9
1)
#590000
0)
#595000
b1 >
0%
06
b101 8
b0 9
1)
#600000
0)
#605000
b1010000 @
1;
b10 >
b1 9
1)
#610000
0)
#615000
0&
b11 >
b1010000 #
b1010000 0
b1010000 2
b1010000 E
1%
16
b10 9
1)
#620000
0)
#625000
0;
b110 =
b0 >
b11 9
1)
#630000
0)
#635000
b1 >
0%
06
b110 8
b0 9
1)
#640000
0)
#645000
b10100000 @
1;
b10 >
b1 9
1)
#650000
0)
#655000
1&
b11 >
b10100000 #
b10100000 0
b10100000 2
b10100000 E
1%
16
b10 9
1)
#660000
0)
#665000
0;
b111 =
b0 >
b11 9
1)
#670000
0)
#675000
b1 >
0%
06
b111 8
b0 9
1)
#680000
0)
#685000
b1000000 @
1;
b10 >
b1 9
1)
#690000
0)
#695000
0&
b11 >
b1000000 #
b1000000 0
b1000000 2
b1000000 E
1%
16
b10 9
1)
#700000
0)
#705000
0;
b10 C
b10 A
b0 >
b11 9
1)
#710000
0)
#715000
b1 >
0%
06
b10 H
b0 9
b10 F
1)
#720000
0)
#725000
1B
b10000000 @
b0 A
b0 >
b1 9
1)
#730000
0)
#735000
1&
0B
b1 >
1!
1G
b10000000 #
b10000000 0
b10000000 2
b10000000 E
b0 9
b0 F
1)
#740000
0)
#745000
b11111010 @
b1 A
b0 =
b0 >
0!
0G
b1 9
1)
#750000
0)
#755000
b1 >
b11111010 #
b11111010 0
b11111010 2
b11111010 E
b0 8
b0 9
b1 F
1)
#760000
0)
#765000
1;
b10 >
b1 9
1)
#770000
0)
#775000
b11 >
1%
16
b10 9
1)
#780000
0)
#785000
0;
b1 =
b0 >
b11 9
1)
#790000
0)
#795000
b1 >
0%
06
b1 8
b0 9
1)
#800000
0)
#805000
b11110100 @
1;
b10 >
b1 9
1)
#810000
0)
#815000
b11 >
b11110100 #
b11110100 0
b11110100 2
b11110100 E
1%
16
b10 9
1)
#820000
0)
#825000
0;
b10 =
b0 >
b11 9
1)
#830000
0)
#835000
b1 >
0%
06
b10 8
b0 9
1)
#840000
0)
#845000
b11101000 @
1;
b10 >
b1 9
1)
#850000
0)
#855000
b11 >
b11101000 #
b11101000 0
b11101000 2
b11101000 E
1%
16
b10 9
1)
#860000
0)
#865000
0;
b11 =
b0 >
b11 9
1)
#870000
0)
#875000
b1 >
0%
06
b11 8
b0 9
1)
#880000
0)
#885000
b11010000 @
1;
b10 >
b1 9
1)
#890000
0)
#895000
b11 >
b11010000 #
b11010000 0
b11010000 2
b11010000 E
1%
16
b10 9
1)
#900000
0)
#905000
0;
b100 =
b0 >
b11 9
1)
#910000
0)
#915000
b1 >
0%
06
b100 8
b0 9
1)
#920000
0)
#925000
b10100000 @
1;
b10 >
b1 9
1)
#930000
0)
#935000
b11 >
b10100000 #
b10100000 0
b10100000 2
b10100000 E
1%
16
b10 9
1)
#940000
0)
#945000
0;
b101 =
b0 >
b11 9
1)
#950000
0)
#955000
b1 >
0%
06
b101 8
b0 9
1)
#960000
0)
#965000
b1000000 @
1;
b10 >
b1 9
1)
#970000
0)
#975000
0&
b11 >
b1000000 #
b1000000 0
b1000000 2
b1000000 E
1%
16
b10 9
1)
#980000
0)
#985000
0;
b110 =
b0 >
b11 9
1)
#990000
0)
#995000
b1 >
0%
06
b110 8
b0 9
1)
#1000000
0)
#1005000
b10000000 @
1;
b10 >
b1 9
1)
#1010000
0)
#1015000
1&
b11 >
b10000000 #
b10000000 0
b10000000 2
b10000000 E
1%
16
b10 9
1)
#1020000
0)
#1025000
0;
b111 =
b0 >
b11 9
1)
#1030000
0)
#1035000
b1 >
0%
06
b111 8
b0 9
1)
#1040000
0)
#1045000
b0 @
1;
b10 >
b1 9
1)
#1050000
0)
#1055000
0&
b11 >
b0 #
b0 0
b0 2
b0 E
1%
16
b10 9
1)
#1060000
0)
#1065000
0;
b11 C
b10 A
b0 >
b11 9
1)
#1070000
0)
#1075000
b1 >
0%
06
b11 H
b0 9
b10 F
1)
#1080000
0)
#1085000
1B
b0 A
b0 >
b1 9
1)
#1090000
0)
#1095000
0B
b1 >
1!
1G
b0 9
b0 F
1)
#1100000
0)
#1105000
b11111010 @
b1 A
b0 =
b0 >
0!
0G
b1 9
1)
#1110000
0)
#1115000
1&
b1 >
b11111010 #
b11111010 0
b11111010 2
b11111010 E
b0 8
b0 9
b1 F
1)
#1120000
0)
#1125000
1;
b10 >
b1 9
1)
#1130000
0)
#1135000
b11 >
1%
16
b10 9
1)
#1140000
0)
#1145000
0;
b1 =
b0 >
b11 9
1)
#1150000
0)
#1155000
b1 >
0%
06
b1 8
b0 9
1)
#1160000
0)
#1165000
b11110100 @
1;
b10 >
b1 9
1)
#1170000
0)
#1175000
b11 >
b11110100 #
b11110100 0
b11110100 2
b11110100 E
1%
16
b10 9
1)
#1180000
0)
#1185000
0;
b10 =
b0 >
b11 9
1)
#1190000
0)
#1195000
b1 >
0%
06
b10 8
b0 9
1)
#1200000
0)
#1205000
b11101000 @
1;
b10 >
b1 9
1)
#1210000
0)
#1215000
b11 >
b11101000 #
b11101000 0
b11101000 2
b11101000 E
1%
16
b10 9
1)
#1220000
0)
#1225000
0;
b11 =
b0 >
b11 9
1)
#1230000
0)
#1235000
b1 >
0%
06
b11 8
b0 9
1)
#1240000
0)
#1245000
b11010000 @
1;
b10 >
b1 9
1)
#1250000
0)
#1255000
b11 >
b11010000 #
b11010000 0
b11010000 2
b11010000 E
1%
16
b10 9
1)
#1260000
0)
#1265000
0;
b100 =
b0 >
b11 9
1)
#1270000
0)
#1275000
b1 >
0%
06
b100 8
b0 9
1)
#1280000
0)
#1285000
b10100000 @
1;
b10 >
b1 9
1)
#1290000
0)
#1295000
b11 >
b10100000 #
b10100000 0
b10100000 2
b10100000 E
1%
16
b10 9
1)
#1300000
0)
#1305000
0;
b101 =
b0 >
b11 9
1)
#1310000
0)
#1315000
b1 >
0%
06
b101 8
b0 9
1)
#1320000
0)
#1325000
b1000000 @
1;
b10 >
b1 9
1)
#1330000
0)
#1335000
0&
b11 >
b1000000 #
b1000000 0
b1000000 2
b1000000 E
1%
16
b10 9
1)
#1340000
0)
#1345000
0;
b110 =
b0 >
b11 9
1)
#1350000
0)
#1355000
b1 >
0%
06
b110 8
b0 9
1)
#1360000
0)
#1365000
b10000000 @
1;
b10 >
b1 9
1)
#1370000
0)
#1375000
1&
b11 >
b10000000 #
b10000000 0
b10000000 2
b10000000 E
1%
16
b10 9
1)
#1380000
0)
#1385000
0;
b111 =
b0 >
b11 9
1)
#1390000
0)
#1395000
b1 >
0%
06
b111 8
b0 9
1)
#1400000
0)
#1405000
b0 @
1;
b10 >
b1 9
1)
#1410000
0)
#1415000
0&
b11 >
b0 #
b0 0
b0 2
b0 E
1%
16
b10 9
1)
#1420000
0)
#1425000
0;
b0 C
b10 A
b0 >
b11 9
1)
#1430000
0)
#1435000
b1 >
0%
06
b0 H
b0 9
b10 F
1)
#1440000
0)
#1445000
1B
1<
b0 A
b0 >
b1 9
1)
#1450000
0)
#1455000
1?
0B
1!
1G
1$
17
b0 9
b0 F
1)
#1460000
0)
#1465000
b1 A
b0 =
b11111011 @
0<
0?
1-
b11111011 *
b11111011 /
b11111011 1
0!
0G
1"
1D
1)
#1470000
0)
#1475000
b10100101 ,
1&
b1 >
0"
0D
0$
07
b11111011 #
b11111011 0
b11111011 2
b11111011 E
b0 8
b1 F
0?
b11111011 @
0<
b0 =
b1 A
0-
1)
#1480000
0)
#1485000
1;
b10 >
b1 9
1)
#1490000
0)
#1495000
b11 >
1%
16
b10 9
1)
#1500000
0)
#1505000
0;
b1 =
b0 >
b11 9
1)
#1510000
0)
#1515000
b1001010 ,
1'
b1 >
0%
06
b1 8
b0 9
1)
#1520000
0)
#1525000
b11110110 @
1;
b10 >
b1 9
1)
#1530000
0)
#1535000
b11 >
b11110110 #
b11110110 0
b11110110 2
b11110110 E
1%
16
b10 9
1)
#1540000
0)
#1545000
1:
0;
b10 =
b0 >
b11 9
1)
#1550000
0)
#1555000
b10010100 ,
0'
b1 >
15
0%
06
b10 8
b0 9
1)
#1560000
0)
#1565000
b11101101 @
1;
b10 >
b1 9
1)
#1570000
0)
#1575000
b11 >
b11101101 #
b11101101 0
b11101101 2
b11101101 E
1%
16
b10 9
1)
#1580000
0)
#1585000
0:
0;
b11 =
b0 >
b11 9
1)
#1590000
0)
#1595000
b101000 ,
1'
b1 >
05
0%
06
b11 8
b0 9
1)
#1600000
0)
#1605000
b11011010 @
1;
b10 >
b1 9
1)
#1610000
0)
#1615000
b11 >
b11011010 #
b11011010 0
b11011010 2
b11011010 E
1%
16
b10 9
1)
#1620000
0)
#1625000
1:
0;
b100 =
b0 >
b11 9
1)
#1630000
0)
#1635000
b1010000 ,
0'
b1 >
15
0%
06
b100 8
b0 9
1)
#1640000
0)
#1645000
b10110101 @
1;
b10 >
b1 9
1)
#1650000
0)
#1655000
b11 >
b10110101 #
b10110101 0
b10110101 2
b10110101 E
1%
16
b10 9
1)
#1660000
0)
#1665000
0:
0;
b101 =
b0 >
b11 9
1)
#1670000
0)
#1675000
b10100000 ,
b1 >
05
0%
06
b101 8
b0 9
1)
#1680000
0)
#1685000
b1101010 @
1;
b10 >
b1 9
1)
#1690000
0)
#1695000
0&
b11 >
b1101010 #
b1101010 0
b1101010 2
b1101010 E
1%
16
b10 9
1)
#1700000
0)
#1705000
0;
b110 =
b0 >
b11 9
1)
#1710000
0)
#1715000
b1000000 ,
1'
b1 >
0%
06
b110 8
b0 9
1)
#1720000
0)
#1725000
b11010100 @
1;
b10 >
b1 9
1)
#1730000
0)
#1735000
1&
b11 >
b11010100 #
b11010100 0
b11010100 2
b11010100 E
1%
16
b10 9
1)
#1740000
0)
#1745000
1:
0;
b111 =
b0 >
b11 9
1)
#1750000
0)
#1755000
b10000000 ,
0'
b1 >
15
0%
06
b111 8
b0 9
1)
#1760000
0)
#1765000
b10101001 @
1;
b10 >
b1 9
1)
#1770000
0)
#1775000
b11 >
b10101001 #
b10101001 0
b10101001 2
b10101001 E
1%
16
b10 9
1)
#1780000
0)
#1785000
0:
0;
b1 C
b10 A
b0 >
b11 9
1)
#1790000
0)
#1795000
b0 ,
1'
b1 >
05
0%
06
b1 H
b0 9
b10 F
1)
#1800000
0)
#1805000
1B
b1010010 @
b0 A
b0 >
b1 9
1)
#1810000
0)
#1815000
b10 .
0&
0B
b1 >
1!
1G
b1010010 #
b1010010 0
b1010010 2
b1010010 E
b0 9
b0 F
1)
#1820000
0)
#1825000
b11111011 @
b1 A
b0 =
b0 >
0!
0G
b1 9
1)
#1830000
0)
#1835000
1&
b1 >
b11111011 #
b11111011 0
b11111011 2
b11111011 E
b0 8
b0 9
b1 F
1)
#1840000
0)
#1845000
1;
b10 >
b1 9
1)
#1850000
0)
#1855000
b11 >
1%
16
b10 9
1)
#1860000
0)
#1865000
1:
0;
b1 =
b0 >
b11 9
1)
#1870000
0)
#1875000
0'
b1 >
15
0%
06
b1 8
b0 9
1)
#1880000
0)
#1885000
b11110111 @
1;
b10 >
b1 9
1)
#1890000
0)
#1895000
b11 >
b11110111 #
b11110111 0
b11110111 2
b11110111 E
1%
16
b10 9
1)
#1900000
0)
#1905000
0:
0;
b10 =
b0 >
b11 9
1)
#1910000
0)
#1915000
b1 >
05
0%
06
b10 8
b0 9
1)
#1920000
0)
#1925000
b11101110 @
1;
b10 >
b1 9
1)
#1930000
0)
#1935000
b11 >
b11101110 #
b11101110 0
b11101110 2
b11101110 E
1%
16
b10 9
1)
#1940000
0)
#1945000
0;
b11 =
b0 >
b11 9
1)
#1950000
0)
#1955000
b1 >
0%
06
b11 8
b0 9
1)
#1960000
0)
#1965000
b11011100 @
1;
b10 >
b1 9
1)
#1970000
0)
#1975000
b11 >
b11011100 #
b11011100 0
b11011100 2
b11011100 E
1%
16
b10 9
1)
#1980000
0)
#1985000
0;
b100 =
b0 >
b11 9
1)
#1990000
0)
#1995000
b1 >
0%
06
b100 8
b0 9
1)
#2000000
0)
#2005000
b10111000 @
1;
b10 >
b1 9
1)
#2010000
0)
#2015000
b11 >
b10111000 #
b10111000 0
b10111000 2
b10111000 E
1%
16
b10 9
1)
#2020000
0)
#2025000
0;
b101 =
b0 >
b11 9
1)
#2030000
0)
#2035000
b1 >
0%
06
b101 8
b0 9
1)
#2040000
0)
#2045000
b1110000 @
1;
b10 >
b1 9
1)
#2050000
0)
#2055000
0&
b11 >
b1110000 #
b1110000 0
b1110000 2
b1110000 E
1%
16
b10 9
1)
#2060000
0)
#2065000
0;
b110 =
b0 >
b11 9
1)
#2070000
0)
#2075000
b1 >
0%
06
b110 8
b0 9
1)
#2080000
0)
#2085000
b11100000 @
1;
b10 >
b1 9
1)
#2090000
0)
#2095000
1&
b11 >
b11100000 #
b11100000 0
b11100000 2
b11100000 E
1%
16
b10 9
1)
#2100000
0)
#2105000
0;
b111 =
b0 >
b11 9
1)
#2110000
0)
#2115000
b1 >
0%
06
b111 8
b0 9
1)
#2120000
0)
#2125000
b11000000 @
1;
b10 >
b1 9
1)
#2130000
0)
#2135000
b11 >
b11000000 #
b11000000 0
b11000000 2
b11000000 E
1%
16
b10 9
1)
#2140000
0)
#2145000
0;
b10 C
b10 A
b0 >
b11 9
1)
#2150000
0)
#2155000
b1 >
0%
06
b10 H
b0 9
b10 F
1)
#2160000
0)
#2165000
1B
b10000000 @
b0 A
b0 >
b1 9
1)
#2170000
0)
#2175000
0B
b1 >
1!
1G
b10000000 #
b10000000 0
b10000000 2
b10000000 E
b0 9
b0 F
1)
#2180000
0)
#2185000
b11111011 @
b1 A
b0 =
b0 >
0!
0G
b1 9
1)
#2190000
0)
#2195000
b1 >
b11111011 #
b11111011 0
b11111011 2
b11111011 E
b0 8
b0 9
b1 F
1)
#2200000
0)
#2205000
1;
b10 >
b1 9
1)
#2210000
0)
#2215000
b11 >
1%
16
b10 9
1)
#2220000
0)
#2225000
0;
b1 =
b0 >
b11 9
1)
#2230000
0)
#2235000
b1 >
0%
06
b1 8
b0 9
1)
#2240000
0)
#2245000
b11110110 @
1;
b10 >
b1 9
1)
#2250000
0)
#2255000
b11 >
b11110110 #
b11110110 0
b11110110 2
b11110110 E
1%
16
b10 9
1)
#2260000
0)
#2265000
0;
b10 =
b0 >
b11 9
1)
#2270000
0)
#2275000
b1 >
0%
06
b10 8
b0 9
1)
#2280000
0)
#2285000
b11101100 @
1;
b10 >
b1 9
1)
#2290000
0)
#2295000
b11 >
b11101100 #
b11101100 0
b11101100 2
b11101100 E
1%
16
b10 9
1)
#2300000
0)
#2305000
0;
b11 =
b0 >
b11 9
1)
#2310000
0)
#2315000
b1 >
0%
06
b11 8
b0 9
1)
#2320000
0)
#2325000
b11011000 @
1;
b10 >
b1 9
1)
#2330000
0)
#2335000
b11 >
b11011000 #
b11011000 0
b11011000 2
b11011000 E
1%
16
b10 9
1)
#2340000
0)
#2345000
0;
b100 =
b0 >
b11 9
1)
#2350000
0)
#2355000
b1 >
0%
06
b100 8
b0 9
1)
#2360000
0)
#2365000
b10110000 @
1;
b10 >
b1 9
1)
#2370000
0)
#2375000
b11 >
b10110000 #
b10110000 0
b10110000 2
b10110000 E
1%
16
b10 9
1)
#2380000
0)
#2385000
0;
b101 =
b0 >
b11 9
1)
#2390000
0)
#2395000
b1 >
0%
06
b101 8
b0 9
1)
#2400000
0)
#2405000
b1100000 @
1;
b10 >
b1 9
1)
#2410000
0)
#2415000
0&
b11 >
b1100000 #
b1100000 0
b1100000 2
b1100000 E
1%
16
b10 9
1)
#2420000
0)
#2425000
0;
b110 =
b0 >
b11 9
1)
#2430000
0)
#2435000
b1 >
0%
06
b110 8
b0 9
1)
#2440000
0)
#2445000
b11000000 @
1;
b10 >
b1 9
1)
#2450000
0)
#2455000
1&
b11 >
b11000000 #
b11000000 0
b11000000 2
b11000000 E
1%
16
b10 9
1)
#2460000
0)
#2465000
0;
b111 =
b0 >
b11 9
1)
#2470000
0)
#2475000
b1 >
0%
06
b111 8
b0 9
1)
#2480000
0)
#2485000
b10000000 @
1;
b10 >
b1 9
1)
#2490000
0)
#2495000
b11 >
b10000000 #
b10000000 0
b10000000 2
b10000000 E
1%
16
b10 9
1)
#2500000
0)
#2505000
0;
b11 C
b10 A
b0 >
b11 9
1)
#2510000
0)
#2515000
b1 >
0%
06
b11 H
b0 9
b10 F
1)
#2520000
0)
#2525000
1B
b0 @
b0 A
b0 >
b1 9
1)
#2530000
0)
#2535000
0&
0B
b1 >
1!
1G
b0 #
b0 0
b0 2
b0 E
b0 9
b0 F
1)
#2540000
0)
#2545000
b11111011 @
b1 A
b0 =
b0 >
0!
0G
b1 9
1)
#2550000
0)
#2555000
1&
b1 >
b11111011 #
b11111011 0
b11111011 2
b11111011 E
b0 8
b0 9
b1 F
1)
#2560000
0)
#2565000
1;
b10 >
b1 9
1)
#2570000
0)
#2575000
b11 >
1%
16
b10 9
1)
#2580000
0)
#2585000
0;
b1 =
b0 >
b11 9
1)
#2590000
0)
#2595000
b1 >
0%
06
b1 8
b0 9
1)
#2600000
0)
#2605000
b11110110 @
1;
b10 >
b1 9
1)
#2610000
0)
#2615000
b11 >
b11110110 #
b11110110 0
b11110110 2
b11110110 E
1%
16
b10 9
1)
#2620000
0)
#2625000
0;
b10 =
b0 >
b11 9
1)
#2630000
0)
#2635000
b1 >
0%
06
b10 8
b0 9
1)
#2640000
0)
#2645000
b11101100 @
1;
b10 >
b1 9
1)
#2650000
0)
#2655000
b11 >
b11101100 #
b11101100 0
b11101100 2
b11101100 E
1%
16
b10 9
1)
#2660000
0)
#2665000
0;
b11 =
b0 >
b11 9
1)
#2670000
0)
#2675000
b1 >
0%
06
b11 8
b0 9
1)
#2680000
0)
#2685000
b11011000 @
1;
b10 >
b1 9
1)
#2690000
0)
#2695000
b11 >
b11011000 #
b11011000 0
b11011000 2
b11011000 E
1%
16
b10 9
1)
#2700000
0)
#2705000
0;
b100 =
b0 >
b11 9
1)
#2710000
0)
#2715000
b1 >
0%
06
b100 8
b0 9
1)
#2720000
0)
#2725000
b10110000 @
1;
b10 >
b1 9
1)
#2730000
0)
#2735000
b11 >
b10110000 #
b10110000 0
b10110000 2
b10110000 E
1%
16
b10 9
1)
#2740000
0)
#2745000
0;
b101 =
b0 >
b11 9
1)
#2750000
0)
#2755000
b1 >
0%
06
b101 8
b0 9
1)
#2760000
0)
#2765000
b1100000 @
1;
b10 >
b1 9
1)
#2770000
0)
#2775000
0&
b11 >
b1100000 #
b1100000 0
b1100000 2
b1100000 E
1%
16
b10 9
1)
#2780000
0)
#2785000
0;
b110 =
b0 >
b11 9
1)
#2790000
0)
#2795000
b1 >
0%
06
b110 8
b0 9
1)
#2800000
0)
#2805000
b11000000 @
1;
b10 >
b1 9
1)
#2810000
0)
#2815000
1&
b11 >
b11000000 #
b11000000 0
b11000000 2
b11000000 E
1%
16
b10 9
1)
#2820000
0)
#2825000
0;
b111 =
b0 >
b11 9
1)
#2830000
0)
#2835000
b1 >
0%
06
b111 8
b0 9
1)
#2840000
0)
#2845000
b10000000 @
1;
b10 >
b1 9
1)
#2850000
0)
#2855000
b11 >
b10000000 #
b10000000 0
b10000000 2
b10000000 E
1%
16
b10 9
1)
#2860000
0)
#2865000
0;
b0 C
b10 A
b0 >
b11 9
1)
#2870000
0)
#2875000
b1 >
0%
06
b0 H
b0 9
b10 F
1)
#2880000
0)
#2885000
1B
b0 @
1<
b0 A
b0 >
b1 9
1)
#2890000
0)
#2895000
0&
1?
0B
1!
1G
1$
17
b0 #
b0 0
b0 2
b0 E
b0 9
b0 F
1)
#2900000
0)
#2905000
b1 A
b0 =
b11111100 @
0<
0?
1-
b11111100 *
b11111100 /
b11111100 1
0!
0G
1"
1D
1)
#2910000
0)
#2915000
b10100101 ,
1&
b1 >
0"
0D
0$
07
b11111100 #
b11111100 0
b11111100 2
b11111100 E
b0 8
b1 F
0?
b11111100 @
0<
b0 =
b1 A
0-
1)
#2920000
0)
#2925000
1;
b10 >
b1 9
1)
#2930000
0)
#2935000
b11 >
1%
16
b10 9
1)
#2940000
0)
#2945000
0;
b1 =
b0 >
b11 9
1)
#2950000
0)
#2955000
b1001010 ,
1'
b1 >
0%
06
b1 8
b0 9
1)
#2960000
0)
#2965000
b11111000 @
1;
b10 >
b1 9
1)
#2970000
0)
#2975000
b11 >
b11111000 #
b11111000 0
b11111000 2
b11111000 E
1%
16
b10 9
1)
#2980000
0)
#2985000
1:
0;
b10 =
b0 >
b11 9
1)
#2990000
0)
#2995000
b10010100 ,
0'
b1 >
15
0%
06
b10 8
b0 9
1)
#3000000
0)
#3005000
b11110001 @
1;
b10 >
b1 9
1)
#3010000
0)
#3015000
b11 >
b11110001 #
b11110001 0
b11110001 2
b11110001 E
1%
16
b10 9
1)
#3020000
0)
#3025000
0:
0;
b11 =
b0 >
b11 9
1)
#3030000
0)
#3035000
b101000 ,
1'
b1 >
05
0%
06
b11 8
b0 9
1)
#3040000
0)
#3045000
b11100010 @
1;
b10 >
b1 9
1)
#3050000
0)
#3055000
b11 >
b11100010 #
b11100010 0
b11100010 2
b11100010 E
1%
16
b10 9
1)
#3060000
0)
#3065000
1:
0;
b100 =
b0 >
b11 9
1)
#3070000
0)
#3075000
b1010000 ,
0'
b1 >
15
0%
06
b100 8
b0 9
1)
#3080000
0)
#3085000
b11000101 @
1;
b10 >
b1 9
1)
#3090000
0)
#3095000
b11 >
b11000101 #
b11000101 0
b11000101 2
b11000101 E
1%
16
b10 9
1)
#3100000
0)
#3105000
0:
0;
b101 =
b0 >
b11 9
1)
#3110000
0)
#3115000
b10100000 ,
b1 >
05
0%
06
b101 8
b0 9
1)
#3120000
0)
#3125000
b10001010 @
1;
b10 >
b1 9
1)
#3130000
0)
#3135000
b11 >
b10001010 #
b10001010 0
b10001010 2
b10001010 E
1%
16
b10 9
1)
#3140000
0)
#3145000
0;
b110 =
b0 >
b11 9
1)
#3150000
0)
#3155000
b1000000 ,
1'
b1 >
0%
06
b110 8
b0 9
1)
#3160000
0)
#3165000
b10100 @
1;
b10 >
b1 9
1)
#3170000
0)
#3175000
0&
b11 >
b10100 #
b10100 0
b10100 2
b10100 E
1%
16
b10 9
1)
#3180000
0)
#3185000
1:
0;
b111 =
b0 >
b11 9
1)
#3190000
0)
